…
    ## {html_document}
    ## <html lang="en">
    ## [1] <head>\n<link rel="P3Pv1" href="http://www.samhsa.gov/w3c/p3p.xml">\n<tit ...
    ## [2] <body>\r\n\r\n<noscript>\r\n<p>Your browser's Javascript is off. Hyperlin ...

``` r
drug_use_html %>%
  html_table() %>% # get all the tables from the website
  first() %>% 
  slice(-1) # get rid off the first row
```

    ## # A tibble: 56 × 16
    ##    State 12+(2…¹ 12+(2…² 12+(P…³ 12-17…⁴ 12-17…⁵ 12-17…⁶ 18-25…⁷ 18-25…⁸ 18-25…⁹
    ##    <chr> <chr>   <chr>   <chr>   <chr>   <chr>   <chr>   <chr>   <chr>   <chr>  
    ##  1 Tota… 12.90a  13.36   0.002   13.28b  12.86   0.063   31.78   32.07   0.369  
    ##  2 Nort… 13.88a  14.66   0.005   13.98   13.51   0.266   34.66a  36.45   0.008  
    ##  3 Midw… 12.40b  12.76   0.082   12.45   12.33   0.726   32.13   32.20   0.900  
    ##  4 South 11.24a  11.64   0.029   12.02   11.88   0.666   28.93   29.20   0.581  
    ##  5 West  15.27   15.62   0.262   15.53a  14.43   0.018   33.72   33.19   0.460  
    ##  6 Alab… 9.98    9.60    0.426   9.90    9.71    0.829   26.99   26.13   0.569  
    ##  7 Alas… 19.60a  21.92   0.010   17.30   18.44   0.392   36.47a  40.69   0.015  
    ##  8 Ariz… 13.69   13.12   0.364   15.12   13.45   0.131   31.53   31.15   0.826  
    ##  9 Arka… 11.37   11.59   0.678   12.79   12.14   0.538   26.53   27.06   0.730  
    ## 10 Cali… 14.49   15.25   0.103   15.03   14.11   0.190   33.69   32.72   0.357  
    ## # … with 46 more rows, 6 more variables: `26+(2013-2014)` <chr>,
    ## #   `26+(2014-2015)` <chr>, `26+(P Value)` <chr>, `18+(2013-2014)` <chr>,
    ## #   `18+(2014-2015)` <chr>, `18+(P Value)` <chr>, and abbreviated variable
    ## #   names ¹​`12+(2013-2014)`, ²​`12+(2014-2015)`, ³​`12+(P Value)`,
    ## #   ⁴​`12-17(2013-2014)`, ⁵​`12-17(2014-2015)`, ⁶​`12-17(P Value)`,
    ## #   ⁷​`18-25(2013-2014)`, ⁸​`18-25(2014-2015)`, ⁹​`18-25(P Value)`
…
